%!PS-Adobe-3.0
%%Creator: graphviz version 2.26.3 (20100126.1600)
%%Title: G
%%Pages: (atend)
%%BoundingBox: (atend)
%%EndComments
save
%%BeginProlog
/DotDict 200 dict def
DotDict begin

/setupLatin1 {
mark
/EncodingVector 256 array def
 EncodingVector 0

ISOLatin1Encoding 0 255 getinterval putinterval
EncodingVector 45 /hyphen put

% Set up ISO Latin 1 character encoding
/starnetISO {
        dup dup findfont dup length dict begin
        { 1 index /FID ne { def }{ pop pop } ifelse
        } forall
        /Encoding EncodingVector def
        currentdict end definefont
} def
/Times-Roman starnetISO def
/Times-Italic starnetISO def
/Times-Bold starnetISO def
/Times-BoldItalic starnetISO def
/Helvetica starnetISO def
/Helvetica-Oblique starnetISO def
/Helvetica-Bold starnetISO def
/Helvetica-BoldOblique starnetISO def
/Courier starnetISO def
/Courier-Oblique starnetISO def
/Courier-Bold starnetISO def
/Courier-BoldOblique starnetISO def
cleartomark
} bind def

%%BeginResource: procset graphviz 0 0
/coord-font-family /Times-Roman def
/default-font-family /Times-Roman def
/coordfont coord-font-family findfont 8 scalefont def

/InvScaleFactor 1.0 def
/set_scale {
       dup 1 exch div /InvScaleFactor exch def
       scale
} bind def

% styles
/solid { [] 0 setdash } bind def
/dashed { [9 InvScaleFactor mul dup ] 0 setdash } bind def
/dotted { [1 InvScaleFactor mul 6 InvScaleFactor mul] 0 setdash } bind def
/invis {/fill {newpath} def /stroke {newpath} def /show {pop newpath} def} bind def
/bold { 2 setlinewidth } bind def
/filled { } bind def
/unfilled { } bind def
/rounded { } bind def
/diagonals { } bind def

% hooks for setting color 
/nodecolor { sethsbcolor } bind def
/edgecolor { sethsbcolor } bind def
/graphcolor { sethsbcolor } bind def
/nopcolor {pop pop pop} bind def

/beginpage {	% i j npages
	/npages exch def
	/j exch def
	/i exch def
	/str 10 string def
	npages 1 gt {
		gsave
			coordfont setfont
			0 0 moveto
			(\() show i str cvs show (,) show j str cvs show (\)) show
		grestore
	} if
} bind def

/set_font {
	findfont exch
	scalefont setfont
} def

% draw text fitted to its expected width
/alignedtext {			% width text
	/text exch def
	/width exch def
	gsave
		width 0 gt {
			[] 0 setdash
			text stringwidth pop width exch sub text length div 0 text ashow
		} if
	grestore
} def

/boxprim {				% xcorner ycorner xsize ysize
		4 2 roll
		moveto
		2 copy
		exch 0 rlineto
		0 exch rlineto
		pop neg 0 rlineto
		closepath
} bind def

/ellipse_path {
	/ry exch def
	/rx exch def
	/y exch def
	/x exch def
	matrix currentmatrix
	newpath
	x y translate
	rx ry scale
	0 0 1 0 360 arc
	setmatrix
} bind def

/endpage { showpage } bind def
/showpage { } def

/layercolorseq
	[	% layer color sequence - darkest to lightest
		[0 0 0]
		[.2 .8 .8]
		[.4 .8 .8]
		[.6 .8 .8]
		[.8 .8 .8]
	]
def

/layerlen layercolorseq length def

/setlayer {/maxlayer exch def /curlayer exch def
	layercolorseq curlayer 1 sub layerlen mod get
	aload pop sethsbcolor
	/nodecolor {nopcolor} def
	/edgecolor {nopcolor} def
	/graphcolor {nopcolor} def
} bind def

/onlayer { curlayer ne {invis} if } def

/onlayers {
	/myupper exch def
	/mylower exch def
	curlayer mylower lt
	curlayer myupper gt
	or
	{invis} if
} def

/curlayer 0 def

%%EndResource
%%EndProlog
%%BeginSetup
14 default-font-family set_font
1 setmiterlimit
% /arrowlength 10 def
% /arrowwidth 5 def

% make sure pdfmark is harmless for PS-interpreters other than Distiller
/pdfmark where {pop} {userdict /pdfmark /cleartomark load put} ifelse
% make '<<' and '>>' safe on PS Level 1 devices
/languagelevel where {pop languagelevel}{1} ifelse
2 lt {
    userdict (<<) cvn ([) cvn load put
    userdict (>>) cvn ([) cvn load put
} if

%%EndSetup
setupLatin1
%%Page: 1 1
%%PageBoundingBox: 36 36 239 382
%%PageOrientation: Portrait
0 0 1 beginpage
gsave
36 36 203 346 boxprim clip newpath
1 1 set_scale 0 rotate 40 41 translate
% cluster_A
gsave
0 0 0.82745 graphcolor
newpath 8 8 moveto
8 330 lineto
78 330 lineto
78 8 lineto
closepath fill
1 setlinewidth
filled
0 0 0 graphcolor
newpath 8 8 moveto
8 330 lineto
78 330 lineto
78 8 lineto
closepath stroke
grestore
% cluster_B
gsave
0 0 0.82745 graphcolor
newpath 117 98 moveto
117 330 lineto
187 330 lineto
187 98 lineto
closepath fill
1 setlinewidth
filled
0 0 0 graphcolor
newpath 117 98 moveto
117 330 lineto
187 330 lineto
187 98 lineto
closepath stroke
grestore
% S7
gsave
0 0 1 nodecolor
43 304 27 18 ellipse_path fill
1 setlinewidth
filled
0 0 1 nodecolor
43 304 27 18 ellipse_path stroke
0 0 0 nodecolor
14 /Times-Roman set_font
33.5 299.9 moveto 19 (S7) alignedtext
grestore
% S4
gsave
0 0 1 nodecolor
43 214 27 18 ellipse_path fill
1 setlinewidth
filled
0 0 1 nodecolor
43 214 27 18 ellipse_path stroke
0 0 0 nodecolor
14 /Times-Roman set_font
33.5 209.9 moveto 19 (S4) alignedtext
grestore
% S7->S4
gsave
grestore
% T2
gsave
0 0 1 nodecolor
152 304 27 18 ellipse_path fill
1 setlinewidth
filled
0 0 1 nodecolor
152 304 27 18 ellipse_path stroke
0 0 0 nodecolor
14 /Times-Roman set_font
142.5 299.9 moveto 19 (T2) alignedtext
grestore
% S7->T2
gsave
1 setlinewidth
0 0 0 edgecolor
newpath 70.22 304 moveto
83.62 304 99.98 304 114.53 304 curveto
stroke
0 0 0 edgecolor
newpath 114.75 307.5 moveto
124.75 304 lineto
114.75 300.5 lineto
closepath fill
1 setlinewidth
solid
0 0 0 edgecolor
newpath 114.75 307.5 moveto
124.75 304 lineto
114.75 300.5 lineto
closepath stroke
0 0 0 edgecolor
14 /Times-Roman set_font
78.5 308.4 moveto 37 (2780) alignedtext
grestore
% S2
gsave
0 0 1 nodecolor
43 124 27 18 ellipse_path fill
1 setlinewidth
filled
0 0 1 nodecolor
43 124 27 18 ellipse_path stroke
0 0 0 nodecolor
14 /Times-Roman set_font
33.5 119.9 moveto 19 (S2) alignedtext
grestore
% S4->S2
gsave
grestore
% S4->T2
gsave
1 setlinewidth
0 0 0 edgecolor
newpath 60.27 228.26 moveto
78.26 243.11 106.6 266.52 127.03 283.38 curveto
stroke
0 0 0 edgecolor
newpath 125.03 286.27 moveto
134.97 289.94 lineto
129.49 280.87 lineto
closepath fill
1 setlinewidth
solid
0 0 0 edgecolor
newpath 125.03 286.27 moveto
134.97 289.94 lineto
129.49 280.87 lineto
closepath stroke
0 0 0 edgecolor
14 /Times-Roman set_font
108 254.9 moveto 28 (590) alignedtext
grestore
% S5
gsave
0 0 1 nodecolor
43 34 27 18 ellipse_path fill
1 setlinewidth
filled
0 0 1 nodecolor
43 34 27 18 ellipse_path stroke
0 0 0 nodecolor
14 /Times-Roman set_font
33.5 29.9 moveto 19 (S5) alignedtext
grestore
% S2->S5
gsave
grestore
% T5
gsave
0 0 1 nodecolor
152 214 27 18 ellipse_path fill
1 setlinewidth
filled
0 0 1 nodecolor
152 214 27 18 ellipse_path stroke
0 0 0 nodecolor
14 /Times-Roman set_font
142.5 209.9 moveto 19 (T5) alignedtext
grestore
% S2->T5
gsave
1 setlinewidth
0 0 0 edgecolor
newpath 60.27 138.26 moveto
78.26 153.11 106.6 176.52 127.03 193.38 curveto
stroke
0 0 0 edgecolor
newpath 125.03 196.27 moveto
134.97 199.94 lineto
129.49 190.87 lineto
closepath fill
1 setlinewidth
solid
0 0 0 edgecolor
newpath 125.03 196.27 moveto
134.97 199.94 lineto
129.49 190.87 lineto
closepath stroke
0 0 0 edgecolor
14 /Times-Roman set_font
108 164.9 moveto 28 (288) alignedtext
grestore
% T7
gsave
0 0 1 nodecolor
152 124 27 18 ellipse_path fill
1 setlinewidth
filled
0 0 1 nodecolor
152 124 27 18 ellipse_path stroke
0 0 0 nodecolor
14 /Times-Roman set_font
142.5 119.9 moveto 19 (T7) alignedtext
grestore
% S2->T7
gsave
1 setlinewidth
0 0 0 edgecolor
newpath 70.22 124 moveto
83.62 124 99.98 124 114.53 124 curveto
stroke
0 0 0 edgecolor
newpath 114.75 127.5 moveto
124.75 124 lineto
114.75 120.5 lineto
closepath fill
1 setlinewidth
solid
0 0 0 edgecolor
newpath 114.75 127.5 moveto
124.75 124 lineto
114.75 120.5 lineto
closepath stroke
0 0 0 edgecolor
14 /Times-Roman set_font
78.5 128.4 moveto 37 (5029) alignedtext
grestore
% S5->T7
gsave
1 setlinewidth
0 0 0 edgecolor
newpath 60.27 48.26 moveto
78.26 63.11 106.6 86.52 127.03 103.38 curveto
stroke
0 0 0 edgecolor
newpath 125.03 106.27 moveto
134.97 109.94 lineto
129.49 100.87 lineto
closepath fill
1 setlinewidth
solid
0 0 0 edgecolor
newpath 125.03 106.27 moveto
134.97 109.94 lineto
129.49 100.87 lineto
closepath stroke
0 0 0 edgecolor
14 /Times-Roman set_font
108 74.9 moveto 28 (630) alignedtext
grestore
% T2->T5
gsave
grestore
% T5->T7
gsave
grestore
endpage
showpage
grestore
%%PageTrailer
%%EndPage: 1
%%Trailer
%%Pages: 1
%%BoundingBox: 36 36 239 382
end
restore
%%EOF
